%YAML 1.1
%TAG !u! tag:unity3d.com,2011:
--- !u!1001 &6713599302538034909
PrefabInstance:
  m_ObjectHideFlags: 0
  serializedVersion: 2
  m_Modification:
    m_TransformParent: {fileID: 0}
    m_Modifications:
    - target: {fileID: 613663319664141004, guid: 03bf6ffaefd0258429dc9abbd87d20cd,
        type: 3}
      propertyPath: m_Materials.Array.data[0]
      value: 
      objectReference: {fileID: 2100000, guid: 3f6fc0cf5e5d31c458bc74ede87cb8ae, type: 2}
    - target: {fileID: 917047968720211336, guid: 03bf6ffaefd0258429dc9abbd87d20cd,
        type: 3}
      propertyPath: m_Name
      value: Archer
      objectReference: {fileID: 0}
    - target: {fileID: 3535089815205751449, guid: 03bf6ffaefd0258429dc9abbd87d20cd,
        type: 3}
      propertyPath: defaultWeapon
      value: 
      objectReference: {fileID: 11400000, guid: 6e0c53508bc9b5e4da1bc31d94ac106f,
        type: 2}
    - target: {fileID: 5910145205365479270, guid: 03bf6ffaefd0258429dc9abbd87d20cd,
        type: 3}
      propertyPath: characterClass
      value: 3
      objectReference: {fileID: 0}
    - target: {fileID: 6272035165303631716, guid: 03bf6ffaefd0258429dc9abbd87d20cd,
        type: 3}
      propertyPath: m_LocalPosition.x
      value: 0
      objectReference: {fileID: 0}
    - target: {fileID: 6272035165303631716, guid: 03bf6ffaefd0258429dc9abbd87d20cd,
        type: 3}
      propertyPath: m_LocalPosition.y
      value: 0
      objectReference: {fileID: 0}
    - target: {fileID: 6272035165303631716, guid: 03bf6ffaefd0258429dc9abbd87d20cd,
        type: 3}
      propertyPath: m_LocalPosition.z
      value: 0
      objectReference: {fileID: 0}
    - target: {fileID: 6272035165303631716, guid: 03bf6ffaefd0258429dc9abbd87d20cd,
        type: 3}
      propertyPath: m_LocalRotation.x
      value: 0
      objectReference: {fileID: 0}
    - target: {fileID: 6272035165303631716, guid: 03bf6ffaefd0258429dc9abbd87d20cd,
        type: 3}
      propertyPath: m_LocalRotation.y
      value: 0
      objectReference: {fileID: 0}
    - target: {fileID: 6272035165303631716, guid: 03bf6ffaefd0258429dc9abbd87d20cd,
        type: 3}
      propertyPath: m_LocalRotation.z
      value: 0
      objectReference: {fileID: 0}
    - target: {fileID: 6272035165303631716, guid: 03bf6ffaefd0258429dc9abbd87d20cd,
        type: 3}
      propertyPath: m_LocalRotation.w
      value: 1
      objectReference: {fileID: 0}
    - target: {fileID: 6272035165303631716, guid: 03bf6ffaefd0258429dc9abbd87d20cd,
        type: 3}
      propertyPath: m_RootOrder
      value: 0
      objectReference: {fileID: 0}
    - target: {fileID: 6272035165303631716, guid: 03bf6ffaefd0258429dc9abbd87d20cd,
        type: 3}
      propertyPath: m_LocalEulerAnglesHint.x
      value: 0
      objectReference: {fileID: 0}
    - target: {fileID: 6272035165303631716, guid: 03bf6ffaefd0258429dc9abbd87d20cd,
        type: 3}
      propertyPath: m_LocalEulerAnglesHint.y
      value: 0
      objectReference: {fileID: 0}
    - target: {fileID: 6272035165303631716, guid: 03bf6ffaefd0258429dc9abbd87d20cd,
        type: 3}
      propertyPath: m_LocalEulerAnglesHint.z
      value: 0
      objectReference: {fileID: 0}
    m_RemovedComponents: []
  m_SourcePrefab: {fileID: 100100000, guid: 03bf6ffaefd0258429dc9abbd87d20cd, type: 3}
