%YAML 1.1
%TAG !u! tag:unity3d.com,2011:
--- !u!114 &11400000
MonoBehaviour:
  m_ObjectHideFlags: 0
  m_CorrespondingSourceObject: {fileID: 0}
  m_PrefabInstance: {fileID: 0}
  m_PrefabAsset: {fileID: 0}
  m_GameObject: {fileID: 0}
  m_Enabled: 1
  m_EditorHideFlags: 0
  m_Script: {fileID: 11500000, guid: 3ae2e3f540b1fb7478d9b115fbb6c646, type: 3}
  m_Name: Sword
  m_EditorClassIdentifier: 
  animatorOverride: {fileID: 22100000, guid: 122488481002a8f4c934406414e28b3b, type: 2}
  equippedPrefab: {fileID: 7930431373428807239, guid: 718df741f05f5344d9fbdb919b8a5eb3,
    type: 3}
  weaponDamage: 20
  weaponRange: 2
  isRightHanded: 1
  projectile: {fileID: 0}
